%YAML 1.1
%TAG !u! tag:unity3d.com,2011:
--- !u!29 &1
OcclusionCullingSettings:
  m_ObjectHideFlags: 0
  serializedVersion: 2
  m_OcclusionBakeSettings:
    smallestOccluder: 5
    smallestHole: 0.25
    backfaceThreshold: 100
  m_SceneGUID: 00000000000000000000000000000000
  m_OcclusionCullingData: {fileID: 0}
--- !u!104 &2
RenderSettings:
  m_ObjectHideFlags: 0
  serializedVersion: 9
  m_Fog: 0
  m_FogColor: {r: 0.5, g: 0.5, b: 0.5, a: 1}
  m_FogMode: 3
  m_FogDensity: 0.01
  m_LinearFogStart: 0
  m_LinearFogEnd: 300
  m_AmbientSkyColor: {r: 0.47794116, g: 0.47794116, b: 0.47794116, a: 1}
  m_AmbientEquatorColor: {r: 0.47794116, g: 0.47794116, b: 0.47794116, a: 1}
  m_AmbientGroundColor: {r: 0.47794116, g: 0.47794116, b: 0.47794116, a: 1}
  m_AmbientIntensity: 1.08
  m_AmbientMode: 0
  m_SubtractiveShadowColor: {r: 0.42, g: 0.478, b: 0.627, a: 1}
  m_SkyboxMaterial: {fileID: 2100000, guid: d54615edf0dff724283f00321f5981f0, type: 2}
  m_HaloStrength: 0.5
  m_FlareStrength: 1
  m_FlareFadeSpeed: 3
  m_HaloTexture: {fileID: 0}
  m_SpotCookie: {fileID: 10001, guid: 0000000000000000e000000000000000, type: 0}
  m_DefaultReflectionMode: 0
  m_DefaultReflectionResolution: 256
  m_ReflectionBounces: 2
  m_ReflectionIntensity: 0.902
  m_CustomReflection: {fileID: 0}
  m_Sun: {fileID: 1449707222}
  m_IndirectSpecularColor: {r: 0, g: 0, b: 0, a: 1}
  m_UseRadianceAmbientProbe: 0
--- !u!157 &4
LightmapSettings:
  m_ObjectHideFlags: 0
  serializedVersion: 11
  m_GIWorkflowMode: 1
  m_GISettings:
    serializedVersion: 2
    m_BounceScale: 1
    m_IndirectOutputScale: 1.86
    m_AlbedoBoost: 3.41
    m_EnvironmentLightingMode: 0
    m_EnableBakedLightmaps: 1
    m_EnableRealtimeLightmaps: 1
  m_LightmapEditorSettings:
    serializedVersion: 12
    m_Resolution: 1
    m_BakeResolution: 20
    m_AtlasSize: 1024
    m_AO: 1
    m_AOMaxDistance: 1
    m_CompAOExponent: 1.37
    m_CompAOExponentDirect: 0.66
    m_ExtractAmbientOcclusion: 0
    m_Padding: 2
    m_LightmapParameters: {fileID: 15201, guid: 0000000000000000f000000000000000,
      type: 0}
    m_LightmapsBakeMode: 1
    m_TextureCompression: 1
    m_FinalGather: 1
    m_FinalGatherFiltering: 1
    m_FinalGatherRayCount: 256
    m_ReflectionCompression: 2
    m_MixedBakeMode: 1
    m_BakeBackend: 0
    m_PVRSampling: 1
    m_PVRDirectSampleCount: 32
    m_PVRSampleCount: 512
    m_PVRBounces: 2
    m_PVREnvironmentSampleCount: 512
    m_PVREnvironmentReferencePointCount: 2048
    m_PVRFilteringMode: 0
    m_PVRDenoiserTypeDirect: 0
    m_PVRDenoiserTypeIndirect: 0
    m_PVRDenoiserTypeAO: 0
    m_PVRFilterTypeDirect: 0
    m_PVRFilterTypeIndirect: 0
    m_PVRFilterTypeAO: 0
    m_PVREnvironmentMIS: 0
    m_PVRCulling: 1
    m_PVRFilteringGaussRadiusDirect: 1
    m_PVRFilteringGaussRadiusIndirect: 5
    m_PVRFilteringGaussRadiusAO: 2
    m_PVRFilteringAtrousPositionSigmaDirect: 0.5
    m_PVRFilteringAtrousPositionSigmaIndirect: 2
    m_PVRFilteringAtrousPositionSigmaAO: 1
    m_ExportTrainingData: 0
    m_TrainingDataDestination: TrainingData
    m_LightProbeSampleCountMultiplier: 4
  m_LightingDataAsset: {fileID: 112000022, guid: fcea6cd2f6f61e6428443eab2e0aba54,
    type: 2}
  m_UseShadowmask: 0
--- !u!196 &5
NavMeshSettings:
  serializedVersion: 2
  m_ObjectHideFlags: 0
  m_BuildSettings:
    serializedVersion: 2
    agentTypeID: 0
    agentRadius: 0.5
    agentHeight: 2
    agentSlope: 45
    agentClimb: 0.4
    ledgeDropHeight: 0
    maxJumpAcrossDistance: 0
    minRegionArea: 2
    manualCellSize: 0
    cellSize: 0.16666666
    manualTileSize: 0
    tileSize: 256
    accuratePlacement: 0
    debug:
      m_Flags: 0
  m_NavMeshData: {fileID: 0}
--- !u!1001 &24638345
PrefabInstance:
  m_ObjectHideFlags: 0
  serializedVersion: 2
  m_Modification:
    m_TransformParent: {fileID: 1472401655}
    m_Modifications:
    - target: {fileID: 100000, guid: 79d412b1c73fbb44487cd094c182a9bb, type: 3}
      propertyPath: m_StaticEditorFlags
      value: 4294967295
      objectReference: {fileID: 0}
    - target: {fileID: 400000, guid: 79d412b1c73fbb44487cd094c182a9bb, type: 3}
      propertyPath: m_RootOrder
      value: 0
      objectReference: {fileID: 0}
    - target: {fileID: 400000, guid: 79d412b1c73fbb44487cd094c182a9bb, type: 3}
      propertyPath: m_LocalPosition.x
      value: -6.7016706
      objectReference: {fileID: 0}
    - target: {fileID: 400000, guid: 79d412b1c73fbb44487cd094c182a9bb, type: 3}
      propertyPath: m_LocalPosition.y
      value: -0.70375097
      objectReference: {fileID: 0}
    - target: {fileID: 400000, guid: 79d412b1c73fbb44487cd094c182a9bb, type: 3}
      propertyPath: m_LocalPosition.z
      value: 2.049
      objectReference: {fileID: 0}
    - target: {fileID: 400000, guid: 79d412b1c73fbb44487cd094c182a9bb, type: 3}
      propertyPath: m_LocalRotation.w
      value: 0.9979585
      objectReference: {fileID: 0}
    - target: {fileID: 400000, guid: 79d412b1c73fbb44487cd094c182a9bb, type: 3}
      propertyPath: m_LocalRotation.x
      value: 0.000000021811081
      objectReference: {fileID: 0}
    - target: {fileID: 400000, guid: 79d412b1c73fbb44487cd094c182a9bb, type: 3}
      propertyPath: m_LocalRotation.y
      value: -0.06386639
      objectReference: {fileID: 0}
    - target: {fileID: 400000, guid: 79d412b1c73fbb44487cd094c182a9bb, type: 3}
      propertyPath: m_LocalRotation.z
      value: 0.0000000013958447
      objectReference: {fileID: 0}
    m_RemovedComponents:
    - {fileID: 9500000, guid: 79d412b1c73fbb44487cd094c182a9bb, type: 3}
  m_SourcePrefab: {fileID: 100100000, guid: 79d412b1c73fbb44487cd094c182a9bb, type: 3}
--- !u!4 &24638346 stripped
Transform:
  m_CorrespondingSourceObject: {fileID: 400000, guid: 79d412b1c73fbb44487cd094c182a9bb,
    type: 3}
  m_PrefabInstance: {fileID: 24638345}
  m_PrefabAsset: {fileID: 0}
--- !u!1 &231095697
GameObject:
  m_ObjectHideFlags: 0
  m_CorrespondingSourceObject: {fileID: 0}
  m_PrefabInstance: {fileID: 0}
  m_PrefabAsset: {fileID: 0}
  serializedVersion: 6
  m_Component:
  - component: {fileID: 231095703}
  - component: {fileID: 231095702}
  - component: {fileID: 231095701}
  - component: {fileID: 231095699}
  m_Layer: 0
  m_Name: Camera
  m_TagString: Untagged
  m_Icon: {fileID: 0}
  m_NavMeshLayer: 0
  m_StaticEditorFlags: 0
  m_IsActive: 1
--- !u!81 &231095699
AudioListener:
  m_ObjectHideFlags: 0
  m_CorrespondingSourceObject: {fileID: 0}
  m_PrefabInstance: {fileID: 0}
  m_PrefabAsset: {fileID: 0}
  m_GameObject: {fileID: 231095697}
  m_Enabled: 1
--- !u!124 &231095701
Behaviour:
  m_ObjectHideFlags: 0
  m_CorrespondingSourceObject: {fileID: 0}
  m_PrefabInstance: {fileID: 0}
  m_PrefabAsset: {fileID: 0}
  m_GameObject: {fileID: 231095697}
  m_Enabled: 1
--- !u!20 &231095702
Camera:
  m_ObjectHideFlags: 0
  m_CorrespondingSourceObject: {fileID: 0}
  m_PrefabInstance: {fileID: 0}
  m_PrefabAsset: {fileID: 0}
  m_GameObject: {fileID: 231095697}
  m_Enabled: 1
  serializedVersion: 2
  m_ClearFlags: 1
  m_BackGroundColor: {r: 0.19215687, g: 0.3019608, b: 0.4745098, a: 0}
  m_projectionMatrixMode: 1
  m_GateFitMode: 2
  m_FOVAxisMode: 0
  m_SensorSize: {x: 36, y: 24}
  m_LensShift: {x: 0, y: 0}
  m_FocalLength: 50
  m_NormalizedViewPortRect:
    serializedVersion: 2
    x: 0
    y: 0
    width: 1
    height: 1
  near clip plane: 0.3
  far clip plane: 1000
  field of view: 58.6
  orthographic: 0
  orthographic size: 5
  m_Depth: 0
  m_CullingMask:
    serializedVersion: 2
    m_Bits: 4294967295
  m_RenderingPath: 3
  m_TargetTexture: {fileID: 0}
  m_TargetDisplay: 0
  m_TargetEye: 3
  m_HDR: 0
  m_AllowMSAA: 1
  m_AllowDynamicResolution: 0
  m_ForceIntoRT: 0
  m_OcclusionCulling: 1
  m_StereoConvergence: 10
  m_StereoSeparation: 0.022
--- !u!4 &231095703
Transform:
  m_ObjectHideFlags: 0
  m_CorrespondingSourceObject: {fileID: 0}
  m_PrefabInstance: {fileID: 0}
  m_PrefabAsset: {fileID: 0}
  m_GameObject: {fileID: 231095697}
  m_LocalRotation: {x: -0, y: 0.87742484, z: -0, w: 0.4797141}
  m_LocalPosition: {x: -14.453, y: 3.217, z: 10.719}
  m_LocalScale: {x: 1, y: 1, z: 1}
  m_Children: []
  m_Father: {fileID: 0}
  m_RootOrder: 4
  m_LocalEulerAnglesHint: {x: 0, y: -597.333, z: 0}
--- !u!1001 &314358727
PrefabInstance:
  m_ObjectHideFlags: 0
  serializedVersion: 2
  m_Modification:
    m_TransformParent: {fileID: 1472401655}
    m_Modifications:
    - target: {fileID: 100000, guid: 025f4e283fb576840aa96c4bcdb97ba0, type: 3}
      propertyPath: m_StaticEditorFlags
      value: 4294967295
      objectReference: {fileID: 0}
    - target: {fileID: 400000, guid: 025f4e283fb576840aa96c4bcdb97ba0, type: 3}
      propertyPath: m_RootOrder
      value: 5
      objectReference: {fileID: 0}
    - target: {fileID: 400000, guid: 025f4e283fb576840aa96c4bcdb97ba0, type: 3}
      propertyPath: m_LocalPosition.x
      value: -2.701738
      objectReference: {fileID: 0}
    - target: {fileID: 400000, guid: 025f4e283fb576840aa96c4bcdb97ba0, type: 3}
      propertyPath: m_LocalPosition.y
      value: -0.70375097
      objectReference: {fileID: 0}
    - target: {fileID: 400000, guid: 025f4e283fb576840aa96c4bcdb97ba0, type: 3}
      propertyPath: m_LocalPosition.z
      value: 0.2
      objectReference: {fileID: 0}
    - target: {fileID: 400000, guid: 025f4e283fb576840aa96c4bcdb97ba0, type: 3}
      propertyPath: m_LocalRotation.w
      value: 1
      objectReference: {fileID: 0}
    - target: {fileID: 400000, guid: 025f4e283fb576840aa96c4bcdb97ba0, type: 3}
      propertyPath: m_LocalRotation.x
      value: 0.000000021855694
      objectReference: {fileID: 0}
    - target: {fileID: 400000, guid: 025f4e283fb576840aa96c4bcdb97ba0, type: 3}
      propertyPath: m_LocalRotation.y
      value: -0
      objectReference: {fileID: 0}
    - target: {fileID: 400000, guid: 025f4e283fb576840aa96c4bcdb97ba0, type: 3}
      propertyPath: m_LocalRotation.z
      value: -0
      objectReference: {fileID: 0}
    m_RemovedComponents:
    - {fileID: 9500000, guid: 025f4e283fb576840aa96c4bcdb97ba0, type: 3}
  m_SourcePrefab: {fileID: 100100000, guid: 025f4e283fb576840aa96c4bcdb97ba0, type: 3}
--- !u!4 &314358728 stripped
Transform:
  m_CorrespondingSourceObject: {fileID: 400000, guid: 025f4e283fb576840aa96c4bcdb97ba0,
    type: 3}
  m_PrefabInstance: {fileID: 314358727}
  m_PrefabAsset: {fileID: 0}
--- !u!1001 &366255993
PrefabInstance:
  m_ObjectHideFlags: 0
  serializedVersion: 2
  m_Modification:
    m_TransformParent: {fileID: 1472401655}
    m_Modifications:
    - target: {fileID: 100000, guid: 3df2746dbbb9fcd4b98280488b85163f, type: 3}
      propertyPath: m_StaticEditorFlags
      value: 4294967295
      objectReference: {fileID: 0}
    - target: {fileID: 400000, guid: 3df2746dbbb9fcd4b98280488b85163f, type: 3}
      propertyPath: m_RootOrder
      value: 15
      objectReference: {fileID: 0}
    - target: {fileID: 400000, guid: 3df2746dbbb9fcd4b98280488b85163f, type: 3}
      propertyPath: m_LocalScale.x
      value: 1
      objectReference: {fileID: 0}
    - target: {fileID: 400000, guid: 3df2746dbbb9fcd4b98280488b85163f, type: 3}
      propertyPath: m_LocalScale.y
      value: 0.9847547
      objectReference: {fileID: 0}
    - target: {fileID: 400000, guid: 3df2746dbbb9fcd4b98280488b85163f, type: 3}
      propertyPath: m_LocalScale.z
      value: 1
      objectReference: {fileID: 0}
    - target: {fileID: 400000, guid: 3df2746dbbb9fcd4b98280488b85163f, type: 3}
      propertyPath: m_RootMapOrder
      value: 
      objectReference: {fileID: 0}
    - target: {fileID: 400000, guid: 3df2746dbbb9fcd4b98280488b85163f, type: 3}
      propertyPath: m_LocalPosition.x
      value: 6.95
      objectReference: {fileID: 0}
    - target: {fileID: 400000, guid: 3df2746dbbb9fcd4b98280488b85163f, type: 3}
      propertyPath: m_LocalPosition.y
      value: 2.0600052
      objectReference: {fileID: 0}
    - target: {fileID: 400000, guid: 3df2746dbbb9fcd4b98280488b85163f, type: 3}
      propertyPath: m_LocalPosition.z
      value: 13.031
      objectReference: {fileID: 0}
    - target: {fileID: 400000, guid: 3df2746dbbb9fcd4b98280488b85163f, type: 3}
      propertyPath: m_LocalRotation.w
      value: -0.07645017
      objectReference: {fileID: 0}
    - target: {fileID: 400000, guid: 3df2746dbbb9fcd4b98280488b85163f, type: 3}
      propertyPath: m_LocalRotation.x
      value: -0
      objectReference: {fileID: 0}
    - target: {fileID: 400000, guid: 3df2746dbbb9fcd4b98280488b85163f, type: 3}
      propertyPath: m_LocalRotation.y
      value: 0.9970735
      objectReference: {fileID: 0}
    - target: {fileID: 400000, guid: 3df2746dbbb9fcd4b98280488b85163f, type: 3}
      propertyPath: m_LocalRotation.z
      value: -0
      objectReference: {fileID: 0}
    - target: {fileID: 2300000, guid: 3df2746dbbb9fcd4b98280488b85163f, type: 3}
      propertyPath: m_LightmapIndex
      value: 255
      objectReference: {fileID: 0}
    - target: {fileID: 2300000, guid: 3df2746dbbb9fcd4b98280488b85163f, type: 3}
      propertyPath: m_LightmapTilingOffset.w
      value: 0
      objectReference: {fileID: 0}
    - target: {fileID: 2300000, guid: 3df2746dbbb9fcd4b98280488b85163f, type: 3}
      propertyPath: m_LightmapTilingOffset.x
      value: 1
      objectReference: {fileID: 0}
    - target: {fileID: 2300000, guid: 3df2746dbbb9fcd4b98280488b85163f, type: 3}
      propertyPath: m_LightmapTilingOffset.y
      value: 1
      objectReference: {fileID: 0}
    - target: {fileID: 2300000, guid: 3df2746dbbb9fcd4b98280488b85163f, type: 3}
      propertyPath: m_LightmapTilingOffset.z
      value: 0
      objectReference: {fileID: 0}
    m_RemovedComponents:
    - {fileID: 9500000, guid: 3df2746dbbb9fcd4b98280488b85163f, type: 3}
  m_SourcePrefab: {fileID: 100100000, guid: 3df2746dbbb9fcd4b98280488b85163f, type: 3}
--- !u!4 &366255994 stripped
Transform:
  m_CorrespondingSourceObject: {fileID: 400000, guid: 3df2746dbbb9fcd4b98280488b85163f,
    type: 3}
  m_PrefabInstance: {fileID: 366255993}
  m_PrefabAsset: {fileID: 0}
--- !u!1001 &420433531
PrefabInstance:
  m_ObjectHideFlags: 0
  serializedVersion: 2
  m_Modification:
    m_TransformParent: {fileID: 1472401655}
    m_Modifications:
    - target: {fileID: 100000, guid: 71fc1db2e822af944b27e68ad66ed50f, type: 3}
      propertyPath: m_StaticEditorFlags
      value: 4294967295
      objectReference: {fileID: 0}
    - target: {fileID: 400000, guid: 71fc1db2e822af944b27e68ad66ed50f, type: 3}
      propertyPath: m_RootOrder
      value: 10
      objectReference: {fileID: 0}
    - target: {fileID: 400000, guid: 71fc1db2e822af944b27e68ad66ed50f, type: 3}
      propertyPath: m_RootMapOrder
      value: 
      objectReference: {fileID: 0}
    - target: {fileID: 400000, guid: 71fc1db2e822af944b27e68ad66ed50f, type: 3}
      propertyPath: m_LocalPosition.x
      value: 5.61
      objectReference: {fileID: 0}
    - target: {fileID: 400000, guid: 71fc1db2e822af944b27e68ad66ed50f, type: 3}
      propertyPath: m_LocalPosition.y
      value: -0.7353543
      objectReference: {fileID: 0}
    - target: {fileID: 400000, guid: 71fc1db2e822af944b27e68ad66ed50f, type: 3}
      propertyPath: m_LocalPosition.z
      value: 12.931
      objectReference: {fileID: 0}
    - target: {fileID: 400000, guid: 71fc1db2e822af944b27e68ad66ed50f, type: 3}
      propertyPath: m_LocalRotation.w
      value: -0.00000004371139
      objectReference: {fileID: 0}
    - target: {fileID: 400000, guid: 71fc1db2e822af944b27e68ad66ed50f, type: 3}
      propertyPath: m_LocalRotation.x
      value: -0
      objectReference: {fileID: 0}
    - target: {fileID: 400000, guid: 71fc1db2e822af944b27e68ad66ed50f, type: 3}
      propertyPath: m_LocalRotation.y
      value: 1
      objectReference: {fileID: 0}
    - target: {fileID: 400000, guid: 71fc1db2e822af944b27e68ad66ed50f, type: 3}
      propertyPath: m_LocalRotation.z
      value: -0
      objectReference: {fileID: 0}
    - target: {fileID: 2300000, guid: 71fc1db2e822af944b27e68ad66ed50f, type: 3}
      propertyPath: m_LightmapIndex
      value: 255
      objectReference: {fileID: 0}
    - target: {fileID: 2300000, guid: 71fc1db2e822af944b27e68ad66ed50f, type: 3}
      propertyPath: m_LightmapTilingOffset.x
      value: 1
      objectReference: {fileID: 0}
    - target: {fileID: 2300000, guid: 71fc1db2e822af944b27e68ad66ed50f, type: 3}
      propertyPath: m_LightmapTilingOffset.y
      value: 1
      objectReference: {fileID: 0}
    m_RemovedComponents:
    - {fileID: 9500000, guid: 71fc1db2e822af944b27e68ad66ed50f, type: 3}
  m_SourcePrefab: {fileID: 100100000, guid: 71fc1db2e822af944b27e68ad66ed50f, type: 3}
--- !u!4 &420433532 stripped
Transform:
  m_CorrespondingSourceObject: {fileID: 400000, guid: 71fc1db2e822af944b27e68ad66ed50f,
    type: 3}
  m_PrefabInstance: {fileID: 420433531}
  m_PrefabAsset: {fileID: 0}
--- !u!1001 &496179850
PrefabInstance:
  m_ObjectHideFlags: 0
  serializedVersion: 2
  m_Modification:
    m_TransformParent: {fileID: 1472401655}
    m_Modifications:
    - target: {fileID: 100000, guid: 3df2746dbbb9fcd4b98280488b85163f, type: 3}
      propertyPath: m_StaticEditorFlags
      value: 4294967295
      objectReference: {fileID: 0}
    - target: {fileID: 400000, guid: 3df2746dbbb9fcd4b98280488b85163f, type: 3}
      propertyPath: m_RootOrder
      value: 7
      objectReference: {fileID: 0}
    - target: {fileID: 400000, guid: 3df2746dbbb9fcd4b98280488b85163f, type: 3}
      propertyPath: m_LocalScale.x
      value: 1
      objectReference: {fileID: 0}
    - target: {fileID: 400000, guid: 3df2746dbbb9fcd4b98280488b85163f, type: 3}
      propertyPath: m_LocalScale.y
      value: 0.9847547
      objectReference: {fileID: 0}
    - target: {fileID: 400000, guid: 3df2746dbbb9fcd4b98280488b85163f, type: 3}
      propertyPath: m_LocalScale.z
      value: 1
      objectReference: {fileID: 0}
    - target: {fileID: 400000, guid: 3df2746dbbb9fcd4b98280488b85163f, type: 3}
      propertyPath: m_RootMapOrder
      value: 
      objectReference: {fileID: 0}
    - target: {fileID: 400000, guid: 3df2746dbbb9fcd4b98280488b85163f, type: 3}
      propertyPath: m_LocalPosition.x
      value: 4.25
      objectReference: {fileID: 0}
    - target: {fileID: 400000, guid: 3df2746dbbb9fcd4b98280488b85163f, type: 3}
      propertyPath: m_LocalPosition.y
      value: 2.0600052
      objectReference: {fileID: 0}
    - target: {fileID: 400000, guid: 3df2746dbbb9fcd4b98280488b85163f, type: 3}
      propertyPath: m_LocalPosition.z
      value: 13.051
      objectReference: {fileID: 0}
    - target: {fileID: 400000, guid: 3df2746dbbb9fcd4b98280488b85163f, type: 3}
      propertyPath: m_LocalRotation.w
      value: 0.038616948
      objectReference: {fileID: 0}
    - target: {fileID: 400000, guid: 3df2746dbbb9fcd4b98280488b85163f, type: 3}
      propertyPath: m_LocalRotation.x
      value: -0
      objectReference: {fileID: 0}
    - target: {fileID: 400000, guid: 3df2746dbbb9fcd4b98280488b85163f, type: 3}
      propertyPath: m_LocalRotation.y
      value: 0.9992541
      objectReference: {fileID: 0}
    - target: {fileID: 400000, guid: 3df2746dbbb9fcd4b98280488b85163f, type: 3}
      propertyPath: m_LocalRotation.z
      value: -0
      objectReference: {fileID: 0}
    - target: {fileID: 2300000, guid: 3df2746dbbb9fcd4b98280488b85163f, type: 3}
      propertyPath: m_LightmapIndex
      value: 255
      objectReference: {fileID: 0}
    - target: {fileID: 2300000, guid: 3df2746dbbb9fcd4b98280488b85163f, type: 3}
      propertyPath: m_LightmapTilingOffset.w
      value: 0
      objectReference: {fileID: 0}
    - target: {fileID: 2300000, guid: 3df2746dbbb9fcd4b98280488b85163f, type: 3}
      propertyPath: m_LightmapTilingOffset.x
      value: 1
      objectReference: {fileID: 0}
    - target: {fileID: 2300000, guid: 3df2746dbbb9fcd4b98280488b85163f, type: 3}
      propertyPath: m_LightmapTilingOffset.y
      value: 1
      objectReference: {fileID: 0}
    - target: {fileID: 2300000, guid: 3df2746dbbb9fcd4b98280488b85163f, type: 3}
      propertyPath: m_LightmapTilingOffset.z
      value: 0
      objectReference: {fileID: 0}
    m_RemovedComponents:
    - {fileID: 9500000, guid: 3df2746dbbb9fcd4b98280488b85163f, type: 3}
  m_SourcePrefab: {fileID: 100100000, guid: 3df2746dbbb9fcd4b98280488b85163f, type: 3}
--- !u!4 &496179851 stripped
Transform:
  m_CorrespondingSourceObject: {fileID: 400000, guid: 3df2746dbbb9fcd4b98280488b85163f,
    type: 3}
  m_PrefabInstance: {fileID: 496179850}
  m_PrefabAsset: {fileID: 0}
--- !u!1001 &520579980
PrefabInstance:
  m_ObjectHideFlags: 0
  serializedVersion: 2
  m_Modification:
    m_TransformParent: {fileID: 1472401655}
    m_Modifications:
    - target: {fileID: 100000, guid: c7c3d558c0575a84d978fefda4b33fea, type: 3}
      propertyPath: m_StaticEditorFlags
      value: 4294967295
      objectReference: {fileID: 0}
    - target: {fileID: 400000, guid: c7c3d558c0575a84d978fefda4b33fea, type: 3}
      propertyPath: m_RootOrder
      value: 12
      objectReference: {fileID: 0}
    - target: {fileID: 400000, guid: c7c3d558c0575a84d978fefda4b33fea, type: 3}
      propertyPath: m_LocalScale.x
      value: 1
      objectReference: {fileID: 0}
    - target: {fileID: 400000, guid: c7c3d558c0575a84d978fefda4b33fea, type: 3}
      propertyPath: m_LocalScale.z
      value: 1
      objectReference: {fileID: 0}
    - target: {fileID: 400000, guid: c7c3d558c0575a84d978fefda4b33fea, type: 3}
      propertyPath: m_RootMapOrder
      value: 
      objectReference: {fileID: 0}
    - target: {fileID: 400000, guid: c7c3d558c0575a84d978fefda4b33fea, type: 3}
      propertyPath: m_LocalPosition.x
      value: -11.867212
      objectReference: {fileID: 0}
    - target: {fileID: 400000, guid: c7c3d558c0575a84d978fefda4b33fea, type: 3}
      propertyPath: m_LocalPosition.y
      value: 3.5283108
      objectReference: {fileID: 0}
    - target: {fileID: 400000, guid: c7c3d558c0575a84d978fefda4b33fea, type: 3}
      propertyPath: m_LocalPosition.z
      value: 1.9468095
      objectReference: {fileID: 0}
    - target: {fileID: 400000, guid: c7c3d558c0575a84d978fefda4b33fea, type: 3}
      propertyPath: m_LocalRotation.w
      value: 0.7071068
      objectReference: {fileID: 0}
    - target: {fileID: 400000, guid: c7c3d558c0575a84d978fefda4b33fea, type: 3}
      propertyPath: m_LocalRotation.x
      value: -0
      objectReference: {fileID: 0}
    - target: {fileID: 400000, guid: c7c3d558c0575a84d978fefda4b33fea, type: 3}
      propertyPath: m_LocalRotation.y
      value: 0.7071068
      objectReference: {fileID: 0}
    - target: {fileID: 400000, guid: c7c3d558c0575a84d978fefda4b33fea, type: 3}
      propertyPath: m_LocalRotation.z
      value: -0
      objectReference: {fileID: 0}
    - target: {fileID: 2300000, guid: c7c3d558c0575a84d978fefda4b33fea, type: 3}
      propertyPath: m_LightmapIndex
      value: 255
      objectReference: {fileID: 0}
    - target: {fileID: 2300000, guid: c7c3d558c0575a84d978fefda4b33fea, type: 3}
      propertyPath: m_LightmapTilingOffset.w
      value: 0
      objectReference: {fileID: 0}
    - target: {fileID: 2300000, guid: c7c3d558c0575a84d978fefda4b33fea, type: 3}
      propertyPath: m_LightmapTilingOffset.x
      value: 1
      objectReference: {fileID: 0}
    - target: {fileID: 2300000, guid: c7c3d558c0575a84d978fefda4b33fea, type: 3}
      propertyPath: m_LightmapTilingOffset.y
      value: 1
      objectReference: {fileID: 0}
    - target: {fileID: 2300000, guid: c7c3d558c0575a84d978fefda4b33fea, type: 3}
      propertyPath: m_LightmapTilingOffset.z
      value: 0
      objectReference: {fileID: 0}
    m_RemovedComponents:
    - {fileID: 9500000, guid: c7c3d558c0575a84d978fefda4b33fea, type: 3}
  m_SourcePrefab: {fileID: 100100000, guid: c7c3d558c0575a84d978fefda4b33fea, type: 3}
--- !u!1001 &543585960
PrefabInstance:
  m_ObjectHideFlags: 0
  serializedVersion: 2
  m_Modification:
    m_TransformParent: {fileID: 1472401655}
    m_Modifications:
    - target: {fileID: 100000, guid: d734e0f1e8152164f912667b484f1bb9, type: 3}
      propertyPath: m_StaticEditorFlags
      value: 4294967295
      objectReference: {fileID: 0}
    - target: {fileID: 400000, guid: d734e0f1e8152164f912667b484f1bb9, type: 3}
      propertyPath: m_RootOrder
      value: 1
      objectReference: {fileID: 0}
    - target: {fileID: 400000, guid: d734e0f1e8152164f912667b484f1bb9, type: 3}
      propertyPath: m_LocalScale.x
      value: 1.2641426
      objectReference: {fileID: 0}
    - target: {fileID: 400000, guid: d734e0f1e8152164f912667b484f1bb9, type: 3}
      propertyPath: m_LocalScale.y
      value: 0.65395397
      objectReference: {fileID: 0}
    - target: {fileID: 400000, guid: d734e0f1e8152164f912667b484f1bb9, type: 3}
      propertyPath: m_LocalScale.z
      value: 1.1947298
      objectReference: {fileID: 0}
    - target: {fileID: 400000, guid: d734e0f1e8152164f912667b484f1bb9, type: 3}
      propertyPath: m_LocalPosition.x
      value: 1.68
      objectReference: {fileID: 0}
    - target: {fileID: 400000, guid: d734e0f1e8152164f912667b484f1bb9, type: 3}
      propertyPath: m_LocalPosition.y
      value: 1.1157073
      objectReference: {fileID: 0}
    - target: {fileID: 400000, guid: d734e0f1e8152164f912667b484f1bb9, type: 3}
      propertyPath: m_LocalPosition.z
      value: 12.431
      objectReference: {fileID: 0}
    - target: {fileID: 400000, guid: d734e0f1e8152164f912667b484f1bb9, type: 3}
      propertyPath: m_LocalRotation.w
      value: 0.7071068
      objectReference: {fileID: 0}
    - target: {fileID: 400000, guid: d734e0f1e8152164f912667b484f1bb9, type: 3}
      propertyPath: m_LocalRotation.x
      value: -0
      objectReference: {fileID: 0}
    - target: {fileID: 400000, guid: d734e0f1e8152164f912667b484f1bb9, type: 3}
      propertyPath: m_LocalRotation.y
      value: 0.7071068
      objectReference: {fileID: 0}
    - target: {fileID: 400000, guid: d734e0f1e8152164f912667b484f1bb9, type: 3}
      propertyPath: m_LocalRotation.z
      value: -0
      objectReference: {fileID: 0}
    - target: {fileID: 400000, guid: d734e0f1e8152164f912667b484f1bb9, type: 3}
      propertyPath: m_LocalEulerAnglesHint.y
      value: 90
      objectReference: {fileID: 0}
    m_RemovedComponents:
    - {fileID: 9500000, guid: d734e0f1e8152164f912667b484f1bb9, type: 3}
  m_SourcePrefab: {fileID: 100100000, guid: d734e0f1e8152164f912667b484f1bb9, type: 3}
--- !u!4 &543585961 stripped
Transform:
  m_CorrespondingSourceObject: {fileID: 400000, guid: d734e0f1e8152164f912667b484f1bb9,
    type: 3}
  m_PrefabInstance: {fileID: 543585960}
  m_PrefabAsset: {fileID: 0}
--- !u!1 &612664193
GameObject:
  m_ObjectHideFlags: 0
  m_CorrespondingSourceObject: {fileID: 100000, guid: c7c3d558c0575a84d978fefda4b33fea,
    type: 3}
  m_PrefabInstance: {fileID: 520579980}
  m_PrefabAsset: {fileID: 0}
  serializedVersion: 6
  m_Component:
  - component: {fileID: 612664194}
  - component: {fileID: 612664196}
  - component: {fileID: 612664195}
  m_Layer: 0
  m_Name: tv1
  m_TagString: Untagged
  m_Icon: {fileID: 0}
  m_NavMeshLayer: 0
  m_StaticEditorFlags: 4294967295
  m_IsActive: 1
--- !u!4 &612664194
Transform:
  m_ObjectHideFlags: 0
  m_CorrespondingSourceObject: {fileID: 400000, guid: c7c3d558c0575a84d978fefda4b33fea,
    type: 3}
  m_PrefabInstance: {fileID: 520579980}
  m_PrefabAsset: {fileID: 0}
  m_GameObject: {fileID: 612664193}
  m_LocalRotation: {x: -0, y: 0.7071068, z: -0, w: 0.7071068}
  m_LocalPosition: {x: -11.867212, y: 3.5283108, z: 1.9468095}
  m_LocalScale: {x: 1, y: 1, z: 1}
  m_Children: []
  m_Father: {fileID: 1472401655}
  m_RootOrder: 12
  m_LocalEulerAnglesHint: {x: 0, y: 0, z: 0}
--- !u!23 &612664195
MeshRenderer:
  m_ObjectHideFlags: 0
  m_CorrespondingSourceObject: {fileID: 2300000, guid: c7c3d558c0575a84d978fefda4b33fea,
    type: 3}
  m_PrefabInstance: {fileID: 520579980}
  m_PrefabAsset: {fileID: 0}
  m_GameObject: {fileID: 612664193}
  m_Enabled: 1
  m_CastShadows: 1
  m_ReceiveShadows: 1
  m_DynamicOccludee: 1
  m_MotionVectors: 1
  m_LightProbeUsage: 1
  m_ReflectionProbeUsage: 1
  m_RayTracingMode: 2
  m_RenderingLayerMask: 1
  m_RendererPriority: 0
  m_Materials:
  - {fileID: 2100000, guid: 04a92c7826262a840a78a8009395367c, type: 2}
  m_StaticBatchInfo:
    firstSubMesh: 0
    subMeshCount: 0
  m_StaticBatchRoot: {fileID: 0}
  m_ProbeAnchor: {fileID: 0}
  m_LightProbeVolumeOverride: {fileID: 0}
  m_ScaleInLightmap: 1
  m_ReceiveGI: 1
  m_PreserveUVs: 0
  m_IgnoreNormalsForChartDetection: 0
  m_ImportantGI: 0
  m_StitchLightmapSeams: 1
  m_SelectedEditorRenderState: 3
  m_MinimumChartSize: 4
  m_AutoUVMaxDistance: 0.5
  m_AutoUVMaxAngle: 89
  m_LightmapParameters: {fileID: 0}
  m_SortingLayerID: 0
  m_SortingLayer: 0
  m_SortingOrder: 0
--- !u!33 &612664196
MeshFilter:
  m_ObjectHideFlags: 0
  m_CorrespondingSourceObject: {fileID: 3300000, guid: c7c3d558c0575a84d978fefda4b33fea,
    type: 3}
  m_PrefabInstance: {fileID: 520579980}
  m_PrefabAsset: {fileID: 0}
  m_GameObject: {fileID: 612664193}
  m_Mesh: {fileID: 4300000, guid: c7c3d558c0575a84d978fefda4b33fea, type: 3}
--- !u!1001 &732552305
PrefabInstance:
  m_ObjectHideFlags: 0
  serializedVersion: 2
  m_Modification:
    m_TransformParent: {fileID: 1472401655}
    m_Modifications:
    - target: {fileID: 100000, guid: 1ccf6afbbd77e9c47bc68cee3f4dfbbd, type: 3}
      propertyPath: m_StaticEditorFlags
      value: 4294967295
      objectReference: {fileID: 0}
    - target: {fileID: 400000, guid: 1ccf6afbbd77e9c47bc68cee3f4dfbbd, type: 3}
      propertyPath: m_RootOrder
      value: 13
      objectReference: {fileID: 0}
    - target: {fileID: 400000, guid: 1ccf6afbbd77e9c47bc68cee3f4dfbbd, type: 3}
      propertyPath: m_LocalScale.x
      value: 0.3487759
      objectReference: {fileID: 0}
    - target: {fileID: 400000, guid: 1ccf6afbbd77e9c47bc68cee3f4dfbbd, type: 3}
      propertyPath: m_LocalScale.y
      value: 0.34877574
      objectReference: {fileID: 0}
    - target: {fileID: 400000, guid: 1ccf6afbbd77e9c47bc68cee3f4dfbbd, type: 3}
      propertyPath: m_LocalScale.z
      value: 0.34877583
      objectReference: {fileID: 0}
    - target: {fileID: 400000, guid: 1ccf6afbbd77e9c47bc68cee3f4dfbbd, type: 3}
      propertyPath: m_RootMapOrder
      value: 
      objectReference: {fileID: 0}
    - target: {fileID: 400000, guid: 1ccf6afbbd77e9c47bc68cee3f4dfbbd, type: 3}
      propertyPath: m_LocalPosition.x
      value: 1.1354775
      objectReference: {fileID: 0}
    - target: {fileID: 400000, guid: 1ccf6afbbd77e9c47bc68cee3f4dfbbd, type: 3}
      propertyPath: m_LocalPosition.y
      value: 0.625
      objectReference: {fileID: 0}
    - target: {fileID: 400000, guid: 1ccf6afbbd77e9c47bc68cee3f4dfbbd, type: 3}
      propertyPath: m_LocalPosition.z
      value: 1.72
      objectReference: {fileID: 0}
    - target: {fileID: 400000, guid: 1ccf6afbbd77e9c47bc68cee3f4dfbbd, type: 3}
      propertyPath: m_LocalRotation.w
      value: -0.21199736
      objectReference: {fileID: 0}
    - target: {fileID: 400000, guid: 1ccf6afbbd77e9c47bc68cee3f4dfbbd, type: 3}
      propertyPath: m_LocalRotation.x
      value: -0
      objectReference: {fileID: 0}
    - target: {fileID: 400000, guid: 1ccf6afbbd77e9c47bc68cee3f4dfbbd, type: 3}
      propertyPath: m_LocalRotation.y
      value: -0.97727025
      objectReference: {fileID: 0}
    - target: {fileID: 400000, guid: 1ccf6afbbd77e9c47bc68cee3f4dfbbd, type: 3}
      propertyPath: m_LocalRotation.z
      value: 0
      objectReference: {fileID: 0}
    m_RemovedComponents:
    - {fileID: 9500000, guid: 1ccf6afbbd77e9c47bc68cee3f4dfbbd, type: 3}
  m_SourcePrefab: {fileID: 100100000, guid: 1ccf6afbbd77e9c47bc68cee3f4dfbbd, type: 3}
--- !u!4 &732552306 stripped
Transform:
  m_CorrespondingSourceObject: {fileID: 400000, guid: 1ccf6afbbd77e9c47bc68cee3f4dfbbd,
    type: 3}
  m_PrefabInstance: {fileID: 732552305}
  m_PrefabAsset: {fileID: 0}
--- !u!1001 &776367064
PrefabInstance:
  m_ObjectHideFlags: 0
  serializedVersion: 2
  m_Modification:
    m_TransformParent: {fileID: 1472401655}
    m_Modifications:
    - target: {fileID: 100000, guid: fbd4bad2f7f54f34ba8a17451620803b, type: 3}
      propertyPath: m_StaticEditorFlags
      value: 4294967295
      objectReference: {fileID: 0}
    - target: {fileID: 400000, guid: fbd4bad2f7f54f34ba8a17451620803b, type: 3}
      propertyPath: m_RootOrder
      value: 11
      objectReference: {fileID: 0}
    - target: {fileID: 400000, guid: fbd4bad2f7f54f34ba8a17451620803b, type: 3}
      propertyPath: m_RootMapOrder
      value: 
      objectReference: {fileID: 0}
    - target: {fileID: 400000, guid: fbd4bad2f7f54f34ba8a17451620803b, type: 3}
      propertyPath: m_LocalPosition.x
      value: 2.02
      objectReference: {fileID: 0}
    - target: {fileID: 400000, guid: fbd4bad2f7f54f34ba8a17451620803b, type: 3}
      propertyPath: m_LocalPosition.y
      value: -0.7041391
      objectReference: {fileID: 0}
    - target: {fileID: 400000, guid: fbd4bad2f7f54f34ba8a17451620803b, type: 3}
      propertyPath: m_LocalPosition.z
      value: 12.951
      objectReference: {fileID: 0}
    - target: {fileID: 400000, guid: fbd4bad2f7f54f34ba8a17451620803b, type: 3}
      propertyPath: m_LocalRotation.w
      value: -0.00000004371139
      objectReference: {fileID: 0}
    - target: {fileID: 400000, guid: fbd4bad2f7f54f34ba8a17451620803b, type: 3}
      propertyPath: m_LocalRotation.x
      value: -0
      objectReference: {fileID: 0}
    - target: {fileID: 400000, guid: fbd4bad2f7f54f34ba8a17451620803b, type: 3}
      propertyPath: m_LocalRotation.y
      value: 1
      objectReference: {fileID: 0}
    - target: {fileID: 400000, guid: fbd4bad2f7f54f34ba8a17451620803b, type: 3}
      propertyPath: m_LocalRotation.z
      value: -0
      objectReference: {fileID: 0}
    - target: {fileID: 2300000, guid: fbd4bad2f7f54f34ba8a17451620803b, type: 3}
      propertyPath: m_LightmapIndex
      value: 255
      objectReference: {fileID: 0}
    - target: {fileID: 2300000, guid: fbd4bad2f7f54f34ba8a17451620803b, type: 3}
      propertyPath: m_LightmapTilingOffset.x
      value: 1
      objectReference: {fileID: 0}
    - target: {fileID: 2300000, guid: fbd4bad2f7f54f34ba8a17451620803b, type: 3}
      propertyPath: m_LightmapTilingOffset.y
      value: 1
      objectReference: {fileID: 0}
    m_RemovedComponents:
    - {fileID: 9500000, guid: fbd4bad2f7f54f34ba8a17451620803b, type: 3}
  m_SourcePrefab: {fileID: 100100000, guid: fbd4bad2f7f54f34ba8a17451620803b, type: 3}
--- !u!4 &776367065 stripped
Transform:
  m_CorrespondingSourceObject: {fileID: 400000, guid: fbd4bad2f7f54f34ba8a17451620803b,
    type: 3}
  m_PrefabInstance: {fileID: 776367064}
  m_PrefabAsset: {fileID: 0}
--- !u!1001 &906863100
PrefabInstance:
  m_ObjectHideFlags: 0
  serializedVersion: 2
  m_Modification:
    m_TransformParent: {fileID: 1472401655}
    m_Modifications:
    - target: {fileID: 100000, guid: ea65a302fdcb31f4a85e3a7fbbb82db0, type: 3}
      propertyPath: m_StaticEditorFlags
      value: 4294967295
      objectReference: {fileID: 0}
    - target: {fileID: 400000, guid: ea65a302fdcb31f4a85e3a7fbbb82db0, type: 3}
      propertyPath: m_RootOrder
      value: 3
      objectReference: {fileID: 0}
    - target: {fileID: 400000, guid: ea65a302fdcb31f4a85e3a7fbbb82db0, type: 3}
      propertyPath: m_LocalPosition.x
      value: -7.882121
      objectReference: {fileID: 0}
    - target: {fileID: 400000, guid: ea65a302fdcb31f4a85e3a7fbbb82db0, type: 3}
      propertyPath: m_LocalPosition.y
      value: -0.70375097
      objectReference: {fileID: 0}
    - target: {fileID: 400000, guid: ea65a302fdcb31f4a85e3a7fbbb82db0, type: 3}
      propertyPath: m_LocalPosition.z
      value: 2.595
      objectReference: {fileID: 0}
    - target: {fileID: 400000, guid: ea65a302fdcb31f4a85e3a7fbbb82db0, type: 3}
      propertyPath: m_LocalRotation.w
      value: 1
      objectReference: {fileID: 0}
    - target: {fileID: 400000, guid: ea65a302fdcb31f4a85e3a7fbbb82db0, type: 3}
      propertyPath: m_LocalRotation.x
      value: 0.000000021855694
      objectReference: {fileID: 0}
    - target: {fileID: 400000, guid: ea65a302fdcb31f4a85e3a7fbbb82db0, type: 3}
      propertyPath: m_LocalRotation.y
      value: -0
      objectReference: {fileID: 0}
    - target: {fileID: 400000, guid: ea65a302fdcb31f4a85e3a7fbbb82db0, type: 3}
      propertyPath: m_LocalRotation.z
      value: -0
      objectReference: {fileID: 0}
    m_RemovedComponents:
    - {fileID: 9500000, guid: ea65a302fdcb31f4a85e3a7fbbb82db0, type: 3}
  m_SourcePrefab: {fileID: 100100000, guid: ea65a302fdcb31f4a85e3a7fbbb82db0, type: 3}
--- !u!4 &906863101 stripped
Transform:
  m_CorrespondingSourceObject: {fileID: 400000, guid: ea65a302fdcb31f4a85e3a7fbbb82db0,
    type: 3}
  m_PrefabInstance: {fileID: 906863100}
  m_PrefabAsset: {fileID: 0}
--- !u!1001 &924631056
PrefabInstance:
  m_ObjectHideFlags: 0
  serializedVersion: 2
  m_Modification:
    m_TransformParent: {fileID: 0}
    m_Modifications:
    - target: {fileID: 400000, guid: 7fc4482dfe616a346aff153e50571f54, type: 3}
      propertyPath: m_RootOrder
      value: 0
      objectReference: {fileID: 0}
    - target: {fileID: 400000, guid: 7fc4482dfe616a346aff153e50571f54, type: 3}
      propertyPath: m_LocalScale.x
      value: 5.6627626
      objectReference: {fileID: 0}
    - target: {fileID: 400000, guid: 7fc4482dfe616a346aff153e50571f54, type: 3}
      propertyPath: m_LocalScale.y
      value: 9.614203
      objectReference: {fileID: 0}
    - target: {fileID: 400000, guid: 7fc4482dfe616a346aff153e50571f54, type: 3}
      propertyPath: m_LocalScale.z
      value: 5.6627645
      objectReference: {fileID: 0}
    - target: {fileID: 400000, guid: 7fc4482dfe616a346aff153e50571f54, type: 3}
      propertyPath: m_LocalPosition.x
      value: 12.15
      objectReference: {fileID: 0}
    - target: {fileID: 400000, guid: 7fc4482dfe616a346aff153e50571f54, type: 3}
      propertyPath: m_LocalPosition.y
      value: 5.4
      objectReference: {fileID: 0}
    - target: {fileID: 400000, guid: 7fc4482dfe616a346aff153e50571f54, type: 3}
      propertyPath: m_LocalPosition.z
      value: 5.3
      objectReference: {fileID: 0}
    - target: {fileID: 400000, guid: 7fc4482dfe616a346aff153e50571f54, type: 3}
      propertyPath: m_LocalRotation.w
      value: 0.7071068
      objectReference: {fileID: 0}
    - target: {fileID: 400000, guid: 7fc4482dfe616a346aff153e50571f54, type: 3}
      propertyPath: m_LocalRotation.x
      value: 0
      objectReference: {fileID: 0}
    - target: {fileID: 400000, guid: 7fc4482dfe616a346aff153e50571f54, type: 3}
      propertyPath: m_LocalRotation.y
      value: -0.7071068
      objectReference: {fileID: 0}
    - target: {fileID: 400000, guid: 7fc4482dfe616a346aff153e50571f54, type: 3}
      propertyPath: m_LocalRotation.z
      value: 0
      objectReference: {fileID: 0}
    - target: {fileID: 400000, guid: 7fc4482dfe616a346aff153e50571f54, type: 3}
      propertyPath: m_LocalEulerAnglesHint.y
      value: -90
      objectReference: {fileID: 0}
    - target: {fileID: 2300000, guid: 7fc4482dfe616a346aff153e50571f54, type: 3}
      propertyPath: m_CastShadows
      value: 0
      objectReference: {fileID: 0}
    m_RemovedComponents:
    - {fileID: 9500000, guid: 7fc4482dfe616a346aff153e50571f54, type: 3}
  m_SourcePrefab: {fileID: 100100000, guid: 7fc4482dfe616a346aff153e50571f54, type: 3}
--- !u!1001 &931862987
PrefabInstance:
  m_ObjectHideFlags: 0
  serializedVersion: 2
  m_Modification:
    m_TransformParent: {fileID: 1472401655}
    m_Modifications:
    - target: {fileID: 100000, guid: 82686f0daef9e39479ebdce3a8749a6c, type: 3}
      propertyPath: m_StaticEditorFlags
      value: 4294967295
      objectReference: {fileID: 0}
    - target: {fileID: 400000, guid: 82686f0daef9e39479ebdce3a8749a6c, type: 3}
      propertyPath: m_RootOrder
      value: 14
      objectReference: {fileID: 0}
    - target: {fileID: 400000, guid: 82686f0daef9e39479ebdce3a8749a6c, type: 3}
      propertyPath: m_RootMapOrder
      value: 
      objectReference: {fileID: 0}
    - target: {fileID: 400000, guid: 82686f0daef9e39479ebdce3a8749a6c, type: 3}
      propertyPath: m_LocalPosition.x
      value: -0.65
      objectReference: {fileID: 0}
    - target: {fileID: 400000, guid: 82686f0daef9e39479ebdce3a8749a6c, type: 3}
      propertyPath: m_LocalPosition.y
      value: -0.71138084
      objectReference: {fileID: 0}
    - target: {fileID: 400000, guid: 82686f0daef9e39479ebdce3a8749a6c, type: 3}
      propertyPath: m_LocalPosition.z
      value: 12.941
      objectReference: {fileID: 0}
    - target: {fileID: 400000, guid: 82686f0daef9e39479ebdce3a8749a6c, type: 3}
      propertyPath: m_LocalRotation.w
      value: -0.00000004371139
      objectReference: {fileID: 0}
    - target: {fileID: 400000, guid: 82686f0daef9e39479ebdce3a8749a6c, type: 3}
      propertyPath: m_LocalRotation.x
      value: -0
      objectReference: {fileID: 0}
    - target: {fileID: 400000, guid: 82686f0daef9e39479ebdce3a8749a6c, type: 3}
      propertyPath: m_LocalRotation.y
      value: 1
      objectReference: {fileID: 0}
    - target: {fileID: 400000, guid: 82686f0daef9e39479ebdce3a8749a6c, type: 3}
      propertyPath: m_LocalRotation.z
      value: -0
      objectReference: {fileID: 0}
    - target: {fileID: 2300000, guid: 82686f0daef9e39479ebdce3a8749a6c, type: 3}
      propertyPath: m_LightmapIndex
      value: 255
      objectReference: {fileID: 0}
    - target: {fileID: 2300000, guid: 82686f0daef9e39479ebdce3a8749a6c, type: 3}
      propertyPath: m_LightmapTilingOffset.x
      value: 1
      objectReference: {fileID: 0}
    - target: {fileID: 2300000, guid: 82686f0daef9e39479ebdce3a8749a6c, type: 3}
      propertyPath: m_LightmapTilingOffset.y
      value: 1
      objectReference: {fileID: 0}
    m_RemovedComponents:
    - {fileID: 9500000, guid: 82686f0daef9e39479ebdce3a8749a6c, type: 3}
  m_SourcePrefab: {fileID: 100100000, guid: 82686f0daef9e39479ebdce3a8749a6c, type: 3}
--- !u!4 &931862988 stripped
Transform:
  m_CorrespondingSourceObject: {fileID: 400000, guid: 82686f0daef9e39479ebdce3a8749a6c,
    type: 3}
  m_PrefabInstance: {fileID: 931862987}
  m_PrefabAsset: {fileID: 0}
--- !u!1001 &954785039
PrefabInstance:
  m_ObjectHideFlags: 0
  serializedVersion: 2
  m_Modification:
    m_TransformParent: {fileID: 1472401655}
    m_Modifications:
    - target: {fileID: 100000, guid: 1ccf6afbbd77e9c47bc68cee3f4dfbbd, type: 3}
      propertyPath: m_StaticEditorFlags
      value: 4294967295
      objectReference: {fileID: 0}
    - target: {fileID: 400000, guid: 1ccf6afbbd77e9c47bc68cee3f4dfbbd, type: 3}
      propertyPath: m_RootOrder
      value: 9
      objectReference: {fileID: 0}
    - target: {fileID: 400000, guid: 1ccf6afbbd77e9c47bc68cee3f4dfbbd, type: 3}
      propertyPath: m_LocalScale.x
      value: 0.3487758
      objectReference: {fileID: 0}
    - target: {fileID: 400000, guid: 1ccf6afbbd77e9c47bc68cee3f4dfbbd, type: 3}
      propertyPath: m_LocalScale.y
      value: 0.3487758
      objectReference: {fileID: 0}
    - target: {fileID: 400000, guid: 1ccf6afbbd77e9c47bc68cee3f4dfbbd, type: 3}
      propertyPath: m_LocalScale.z
      value: 0.34877568
      objectReference: {fileID: 0}
    - target: {fileID: 400000, guid: 1ccf6afbbd77e9c47bc68cee3f4dfbbd, type: 3}
      propertyPath: m_RootMapOrder
      value: 
      objectReference: {fileID: 0}
    - target: {fileID: 400000, guid: 1ccf6afbbd77e9c47bc68cee3f4dfbbd, type: 3}
      propertyPath: m_LocalPosition.x
      value: 1.5204849
      objectReference: {fileID: 0}
    - target: {fileID: 400000, guid: 1ccf6afbbd77e9c47bc68cee3f4dfbbd, type: 3}
      propertyPath: m_LocalPosition.y
      value: 0.615
      objectReference: {fileID: 0}
    - target: {fileID: 400000, guid: 1ccf6afbbd77e9c47bc68cee3f4dfbbd, type: 3}
      propertyPath: m_LocalPosition.z
      value: 1.56
      objectReference: {fileID: 0}
    - target: {fileID: 400000, guid: 1ccf6afbbd77e9c47bc68cee3f4dfbbd, type: 3}
      propertyPath: m_LocalRotation.w
      value: 0.6868077
      objectReference: {fileID: 0}
    - target: {fileID: 400000, guid: 1ccf6afbbd77e9c47bc68cee3f4dfbbd, type: 3}
      propertyPath: m_LocalRotation.x
      value: 0.014971311
      objectReference: {fileID: 0}
    - target: {fileID: 400000, guid: 1ccf6afbbd77e9c47bc68cee3f4dfbbd, type: 3}
      propertyPath: m_LocalRotation.y
      value: 0.021397587
      objectReference: {fileID: 0}
    - target: {fileID: 400000, guid: 1ccf6afbbd77e9c47bc68cee3f4dfbbd, type: 3}
      propertyPath: m_LocalRotation.z
      value: 0.7263699
      objectReference: {fileID: 0}
    - target: {fileID: 400000, guid: 1ccf6afbbd77e9c47bc68cee3f4dfbbd, type: 3}
      propertyPath: m_LocalEulerAnglesHint.x
      value: -0.60300004
      objectReference: {fileID: 0}
    - target: {fileID: 400000, guid: 1ccf6afbbd77e9c47bc68cee3f4dfbbd, type: 3}
      propertyPath: m_LocalEulerAnglesHint.y
      value: 2.9320002
      objectReference: {fileID: 0}
    - target: {fileID: 400000, guid: 1ccf6afbbd77e9c47bc68cee3f4dfbbd, type: 3}
      propertyPath: m_LocalEulerAnglesHint.z
      value: 93.192
      objectReference: {fileID: 0}
    m_RemovedComponents:
    - {fileID: 9500000, guid: 1ccf6afbbd77e9c47bc68cee3f4dfbbd, type: 3}
  m_SourcePrefab: {fileID: 100100000, guid: 1ccf6afbbd77e9c47bc68cee3f4dfbbd, type: 3}
--- !u!4 &954785040 stripped
Transform:
  m_CorrespondingSourceObject: {fileID: 400000, guid: 1ccf6afbbd77e9c47bc68cee3f4dfbbd,
    type: 3}
  m_PrefabInstance: {fileID: 954785039}
  m_PrefabAsset: {fileID: 0}
--- !u!1001 &1054453170
PrefabInstance:
  m_ObjectHideFlags: 0
  serializedVersion: 2
  m_Modification:
    m_TransformParent: {fileID: 1472401655}
    m_Modifications:
    - target: {fileID: 100000, guid: 92f18712826840f4bb15ca76d3f7d765, type: 3}
      propertyPath: m_StaticEditorFlags
      value: 4294967295
      objectReference: {fileID: 0}
    - target: {fileID: 400000, guid: 92f18712826840f4bb15ca76d3f7d765, type: 3}
      propertyPath: m_RootOrder
      value: 2
      objectReference: {fileID: 0}
    - target: {fileID: 400000, guid: 92f18712826840f4bb15ca76d3f7d765, type: 3}
      propertyPath: m_LocalScale.x
      value: 1.3794155
      objectReference: {fileID: 0}
    - target: {fileID: 400000, guid: 92f18712826840f4bb15ca76d3f7d765, type: 3}
      propertyPath: m_LocalScale.y
      value: 1.3794153
      objectReference: {fileID: 0}
    - target: {fileID: 400000, guid: 92f18712826840f4bb15ca76d3f7d765, type: 3}
      propertyPath: m_LocalScale.z
      value: 1.3794153
      objectReference: {fileID: 0}
    - target: {fileID: 400000, guid: 92f18712826840f4bb15ca76d3f7d765, type: 3}
      propertyPath: m_LocalPosition.x
      value: 5.61
      objectReference: {fileID: 0}
    - target: {fileID: 400000, guid: 92f18712826840f4bb15ca76d3f7d765, type: 3}
      propertyPath: m_LocalPosition.y
      value: 1.6967074
      objectReference: {fileID: 0}
    - target: {fileID: 400000, guid: 92f18712826840f4bb15ca76d3f7d765, type: 3}
      propertyPath: m_LocalPosition.z
      value: 12.941
      objectReference: {fileID: 0}
    - target: {fileID: 400000, guid: 92f18712826840f4bb15ca76d3f7d765, type: 3}
      propertyPath: m_LocalRotation.w
      value: 0
      objectReference: {fileID: 0}
    - target: {fileID: 400000, guid: 92f18712826840f4bb15ca76d3f7d765, type: 3}
      propertyPath: m_LocalRotation.x
      value: -0
      objectReference: {fileID: 0}
    - target: {fileID: 400000, guid: 92f18712826840f4bb15ca76d3f7d765, type: 3}
      propertyPath: m_LocalRotation.y
      value: 1
      objectReference: {fileID: 0}
    - target: {fileID: 400000, guid: 92f18712826840f4bb15ca76d3f7d765, type: 3}
      propertyPath: m_LocalRotation.z
      value: -0
      objectReference: {fileID: 0}
    - target: {fileID: 400000, guid: 92f18712826840f4bb15ca76d3f7d765, type: 3}
      propertyPath: m_LocalEulerAnglesHint.y
      value: 180
      objectReference: {fileID: 0}
    m_RemovedComponents:
    - {fileID: 9500000, guid: 92f18712826840f4bb15ca76d3f7d765, type: 3}
  m_SourcePrefab: {fileID: 100100000, guid: 92f18712826840f4bb15ca76d3f7d765, type: 3}
--- !u!4 &1054453171 stripped
Transform:
  m_CorrespondingSourceObject: {fileID: 400000, guid: 92f18712826840f4bb15ca76d3f7d765,
    type: 3}
  m_PrefabInstance: {fileID: 1054453170}
  m_PrefabAsset: {fileID: 0}
--- !u!1 &1298058750
GameObject:
  m_ObjectHideFlags: 0
  m_CorrespondingSourceObject: {fileID: 0}
  m_PrefabInstance: {fileID: 0}
  m_PrefabAsset: {fileID: 0}
  serializedVersion: 6
  m_Component:
  - component: {fileID: 1298058751}
  - component: {fileID: 1298058753}
  - component: {fileID: 1298058752}
  m_Layer: 0
  m_Name: Cube (1)
  m_TagString: Untagged
  m_Icon: {fileID: 0}
  m_NavMeshLayer: 0
  m_StaticEditorFlags: 4294967295
  m_IsActive: 1
--- !u!4 &1298058751
Transform:
  m_ObjectHideFlags: 0
  m_CorrespondingSourceObject: {fileID: 0}
  m_PrefabInstance: {fileID: 0}
  m_PrefabAsset: {fileID: 0}
  m_GameObject: {fileID: 1298058750}
  m_LocalRotation: {x: 0, y: 0, z: 0, w: 1}
  m_LocalPosition: {x: -0.183, y: 0.449, z: 0.627}
  m_LocalScale: {x: 1.7422507, y: 0.029980317, z: 1.0989012}
  m_Children: []
  m_Father: {fileID: 1368382619}
  m_RootOrder: 4
  m_LocalEulerAnglesHint: {x: 0, y: 0, z: 0}
--- !u!23 &1298058752
MeshRenderer:
  m_ObjectHideFlags: 0
  m_CorrespondingSourceObject: {fileID: 0}
  m_PrefabInstance: {fileID: 0}
  m_PrefabAsset: {fileID: 0}
  m_GameObject: {fileID: 1298058750}
  m_Enabled: 1
  m_CastShadows: 1
  m_ReceiveShadows: 1
  m_DynamicOccludee: 1
  m_MotionVectors: 1
  m_LightProbeUsage: 0
  m_ReflectionProbeUsage: 1
  m_RayTracingMode: 2
  m_RenderingLayerMask: 1
  m_RendererPriority: 0
  m_Materials:
  - {fileID: 2100000, guid: b6385e9b7f575eb4a9fbe57f3aa1c9ef, type: 2}
  m_StaticBatchInfo:
    firstSubMesh: 0
    subMeshCount: 0
  m_StaticBatchRoot: {fileID: 0}
  m_ProbeAnchor: {fileID: 0}
  m_LightProbeVolumeOverride: {fileID: 0}
  m_ScaleInLightmap: 1
  m_ReceiveGI: 1
  m_PreserveUVs: 0
  m_IgnoreNormalsForChartDetection: 0
  m_ImportantGI: 0
  m_StitchLightmapSeams: 1
  m_SelectedEditorRenderState: 3
  m_MinimumChartSize: 4
  m_AutoUVMaxDistance: 0.5
  m_AutoUVMaxAngle: 89
  m_LightmapParameters: {fileID: 0}
  m_SortingLayerID: 0
  m_SortingLayer: 0
  m_SortingOrder: 0
--- !u!33 &1298058753
MeshFilter:
  m_ObjectHideFlags: 0
  m_CorrespondingSourceObject: {fileID: 0}
  m_PrefabInstance: {fileID: 0}
  m_PrefabAsset: {fileID: 0}
  m_GameObject: {fileID: 1298058750}
  m_Mesh: {fileID: 10202, guid: 0000000000000000e000000000000000, type: 0}
--- !u!1001 &1338054897
PrefabInstance:
  m_ObjectHideFlags: 0
  serializedVersion: 2
  m_Modification:
    m_TransformParent: {fileID: 1472401655}
    m_Modifications:
    - target: {fileID: 100000, guid: c98458455be827c41a2536fc1affd2e8, type: 3}
      propertyPath: m_StaticEditorFlags
      value: 4294967295
      objectReference: {fileID: 0}
    - target: {fileID: 400000, guid: c98458455be827c41a2536fc1affd2e8, type: 3}
      propertyPath: m_RootOrder
      value: 6
      objectReference: {fileID: 0}
    - target: {fileID: 400000, guid: c98458455be827c41a2536fc1affd2e8, type: 3}
      propertyPath: m_LocalPosition.x
      value: 2.9866123
      objectReference: {fileID: 0}
    - target: {fileID: 400000, guid: c98458455be827c41a2536fc1affd2e8, type: 3}
      propertyPath: m_LocalPosition.y
      value: -0.67
      objectReference: {fileID: 0}
    - target: {fileID: 400000, guid: c98458455be827c41a2536fc1affd2e8, type: 3}
      propertyPath: m_LocalPosition.z
      value: 2.51
      objectReference: {fileID: 0}
    - target: {fileID: 400000, guid: c98458455be827c41a2536fc1affd2e8, type: 3}
      propertyPath: m_LocalRotation.w
      value: 1
      objectReference: {fileID: 0}
    - target: {fileID: 400000, guid: c98458455be827c41a2536fc1affd2e8, type: 3}
      propertyPath: m_LocalRotation.x
      value: 0.000000021855694
      objectReference: {fileID: 0}
    - target: {fileID: 400000, guid: c98458455be827c41a2536fc1affd2e8, type: 3}
      propertyPath: m_LocalRotation.y
      value: -0
      objectReference: {fileID: 0}
    - target: {fileID: 400000, guid: c98458455be827c41a2536fc1affd2e8, type: 3}
      propertyPath: m_LocalRotation.z
      value: -0
      objectReference: {fileID: 0}
    m_RemovedComponents:
    - {fileID: 9500000, guid: c98458455be827c41a2536fc1affd2e8, type: 3}
  m_SourcePrefab: {fileID: 100100000, guid: c98458455be827c41a2536fc1affd2e8, type: 3}
--- !u!4 &1338054898 stripped
Transform:
  m_CorrespondingSourceObject: {fileID: 400000, guid: c98458455be827c41a2536fc1affd2e8,
    type: 3}
  m_PrefabInstance: {fileID: 1338054897}
  m_PrefabAsset: {fileID: 0}
--- !u!1001 &1368382618
PrefabInstance:
  m_ObjectHideFlags: 0
  serializedVersion: 2
  m_Modification:
    m_TransformParent: {fileID: 1472401655}
    m_Modifications:
    - target: {fileID: 100000, guid: 0d2ed163860809d48ab2e72792d683e8, type: 3}
      propertyPath: m_Name
      value: interior
      objectReference: {fileID: 0}
    - target: {fileID: 100000, guid: 0d2ed163860809d48ab2e72792d683e8, type: 3}
      propertyPath: m_StaticEditorFlags
      value: 4294967295
      objectReference: {fileID: 0}
    - target: {fileID: 100004, guid: 0d2ed163860809d48ab2e72792d683e8, type: 3}
      propertyPath: m_StaticEditorFlags
      value: 4294967295
      objectReference: {fileID: 0}
    - target: {fileID: 100006, guid: 0d2ed163860809d48ab2e72792d683e8, type: 3}
      propertyPath: m_StaticEditorFlags
      value: 4294967295
      objectReference: {fileID: 0}
    - target: {fileID: 100008, guid: 0d2ed163860809d48ab2e72792d683e8, type: 3}
      propertyPath: m_StaticEditorFlags
      value: 4294967295
      objectReference: {fileID: 0}
    - target: {fileID: 100010, guid: 0d2ed163860809d48ab2e72792d683e8, type: 3}
      propertyPath: m_StaticEditorFlags
      value: 4294967295
      objectReference: {fileID: 0}
    - target: {fileID: 400000, guid: 0d2ed163860809d48ab2e72792d683e8, type: 3}
      propertyPath: m_RootOrder
      value: 17
      objectReference: {fileID: 0}
    - target: {fileID: 400000, guid: 0d2ed163860809d48ab2e72792d683e8, type: 3}
      propertyPath: m_LocalScale.x
      value: 15.928609
      objectReference: {fileID: 0}
    - target: {fileID: 400000, guid: 0d2ed163860809d48ab2e72792d683e8, type: 3}
      propertyPath: m_LocalScale.y
      value: 17.851044
      objectReference: {fileID: 0}
    - target: {fileID: 400000, guid: 0d2ed163860809d48ab2e72792d683e8, type: 3}
      propertyPath: m_LocalScale.z
      value: 15.92862
      objectReference: {fileID: 0}
    - target: {fileID: 400000, guid: 0d2ed163860809d48ab2e72792d683e8, type: 3}
      propertyPath: m_LocalPosition.x
      value: 1.1158329
      objectReference: {fileID: 0}
    - target: {fileID: 400000, guid: 0d2ed163860809d48ab2e72792d683e8, type: 3}
      propertyPath: m_LocalPosition.y
      value: -0.6602927
      objectReference: {fileID: 0}
    - target: {fileID: 400000, guid: 0d2ed163860809d48ab2e72792d683e8, type: 3}
      propertyPath: m_LocalPosition.z
      value: -4.0489626
      objectReference: {fileID: 0}
    - target: {fileID: 400000, guid: 0d2ed163860809d48ab2e72792d683e8, type: 3}
      propertyPath: m_LocalRotation.w
      value: 1
      objectReference: {fileID: 0}
    - target: {fileID: 400000, guid: 0d2ed163860809d48ab2e72792d683e8, type: 3}
      propertyPath: m_LocalRotation.x
      value: -0
      objectReference: {fileID: 0}
    - target: {fileID: 400000, guid: 0d2ed163860809d48ab2e72792d683e8, type: 3}
      propertyPath: m_LocalRotation.y
      value: -0
      objectReference: {fileID: 0}
    - target: {fileID: 400000, guid: 0d2ed163860809d48ab2e72792d683e8, type: 3}
      propertyPath: m_LocalRotation.z
      value: -0
      objectReference: {fileID: 0}
    - target: {fileID: 400004, guid: 0d2ed163860809d48ab2e72792d683e8, type: 3}
      propertyPath: m_LocalScale.x
      value: 0.0256667
      objectReference: {fileID: 0}
    - target: {fileID: 400004, guid: 0d2ed163860809d48ab2e72792d683e8, type: 3}
      propertyPath: m_LocalPosition.x
      value: -0.093
      objectReference: {fileID: 0}
    - target: {fileID: 400010, guid: 0d2ed163860809d48ab2e72792d683e8, type: 3}
      propertyPath: m_LocalScale.x
      value: 1.0492723
      objectReference: {fileID: 0}
    - target: {fileID: 400010, guid: 0d2ed163860809d48ab2e72792d683e8, type: 3}
      propertyPath: m_LocalScale.y
      value: 1.0302299
      objectReference: {fileID: 0}
    - target: {fileID: 400010, guid: 0d2ed163860809d48ab2e72792d683e8, type: 3}
      propertyPath: m_LocalPosition.x
      value: -0.074
      objectReference: {fileID: 0}
    - target: {fileID: 400010, guid: 0d2ed163860809d48ab2e72792d683e8, type: 3}
      propertyPath: m_LocalPosition.y
      value: 0.273
      objectReference: {fileID: 0}
    m_RemovedComponents: []
  m_SourcePrefab: {fileID: 100100000, guid: 0d2ed163860809d48ab2e72792d683e8, type: 3}
--- !u!4 &1368382619 stripped
Transform:
  m_CorrespondingSourceObject: {fileID: 400000, guid: 0d2ed163860809d48ab2e72792d683e8,
    type: 3}
  m_PrefabInstance: {fileID: 1368382618}
  m_PrefabAsset: {fileID: 0}
--- !u!1 &1449707221
GameObject:
  m_ObjectHideFlags: 0
  m_CorrespondingSourceObject: {fileID: 0}
  m_PrefabInstance: {fileID: 0}
  m_PrefabAsset: {fileID: 0}
  serializedVersion: 6
  m_Component:
  - component: {fileID: 1449707223}
  - component: {fileID: 1449707222}
  m_Layer: 0
  m_Name: Directional light
  m_TagString: Untagged
  m_Icon: {fileID: 0}
  m_NavMeshLayer: 0
  m_StaticEditorFlags: 4294967295
  m_IsActive: 1
--- !u!108 &1449707222
Light:
  m_ObjectHideFlags: 0
  m_CorrespondingSourceObject: {fileID: 0}
  m_PrefabInstance: {fileID: 0}
  m_PrefabAsset: {fileID: 0}
  m_GameObject: {fileID: 1449707221}
  m_Enabled: 1
  serializedVersion: 10
  m_Type: 1
  m_Shape: 0
  m_Color: {r: 1, g: 1, b: 1, a: 1}
  m_Intensity: 1.54
  m_Range: 10
  m_SpotAngle: 30
  m_InnerSpotAngle: 21.80208
  m_CookieSize: 10
  m_Shadows:
    m_Type: 2
    m_Resolution: 2
    m_CustomResolution: -1
    m_Strength: 0.489
    m_Bias: 0.04
    m_NormalBias: 0.4
    m_NearPlane: 0.2
    m_CullingMatrixOverride:
      e00: 1
      e01: 0
      e02: 0
      e03: 0
      e10: 0
      e11: 1
      e12: 0
      e13: 0
      e20: 0
      e21: 0
      e22: 1
      e23: 0
      e30: 0
      e31: 0
      e32: 0
      e33: 1
    m_UseCullingMatrixOverride: 0
  m_Cookie: {fileID: 0}
  m_DrawHalo: 0
  m_Flare: {fileID: 0}
  m_RenderMode: 0
  m_CullingMask:
    serializedVersion: 2
    m_Bits: 4294967295
  m_RenderingLayerMask: 1
  m_Lightmapping: 1
  m_LightShadowCasterMode: 0
  m_AreaSize: {x: 1, y: 1}
  m_BounceIntensity: 1.38
  m_ColorTemperature: 6570
  m_UseColorTemperature: 0
  m_BoundingSphereOverride: {x: 0, y: 0, z: 0, w: 0}
  m_UseBoundingSphereOverride: 0
  m_ShadowRadius: 0
  m_ShadowAngle: 0
--- !u!4 &1449707223
Transform:
  m_ObjectHideFlags: 0
  m_CorrespondingSourceObject: {fileID: 0}
  m_PrefabInstance: {fileID: 0}
  m_PrefabAsset: {fileID: 0}
  m_GameObject: {fileID: 1449707221}
  m_LocalRotation: {x: 0.35475534, y: -0.37053698, z: -0.34100023, w: 0.7877626}
  m_LocalPosition: {x: 0.6576003, y: 3.9318461, z: 1.3208425}
  m_LocalScale: {x: 1, y: 1, z: 1}
  m_Children: []
  m_Father: {fileID: 0}
  m_RootOrder: 1
  m_LocalEulerAnglesHint: {x: 17.832, y: -60.158005, z: -57.196003}
--- !u!1 &1472401654
GameObject:
  m_ObjectHideFlags: 0
  m_CorrespondingSourceObject: {fileID: 0}
  m_PrefabInstance: {fileID: 0}
  m_PrefabAsset: {fileID: 0}
  serializedVersion: 6
  m_Component:
  - component: {fileID: 1472401655}
  m_Layer: 0
  m_Name: Models
  m_TagString: Untagged
  m_Icon: {fileID: 0}
  m_NavMeshLayer: 0
  m_StaticEditorFlags: 4294967295
  m_IsActive: 1
--- !u!4 &1472401655
Transform:
  m_ObjectHideFlags: 0
  m_CorrespondingSourceObject: {fileID: 0}
  m_PrefabInstance: {fileID: 0}
  m_PrefabAsset: {fileID: 0}
  m_GameObject: {fileID: 1472401654}
  m_LocalRotation: {x: 0, y: 0, z: 0, w: 1}
  m_LocalPosition: {x: -2.965833, y: 0.7302927, z: -0.2810371}
  m_LocalScale: {x: 1, y: 1, z: 1}
  m_Children:
  - {fileID: 24638346}
  - {fileID: 543585961}
  - {fileID: 1054453171}
  - {fileID: 906863101}
  - {fileID: 1897152828}
  - {fileID: 314358728}
  - {fileID: 1338054898}
  - {fileID: 496179851}
  - {fileID: 2021644563}
  - {fileID: 954785040}
  - {fileID: 420433532}
  - {fileID: 776367065}
  - {fileID: 612664194}
  - {fileID: 732552306}
  - {fileID: 931862988}
  - {fileID: 366255994}
  - {fileID: 1873334409}
  - {fileID: 1368382619}
  m_Father: {fileID: 0}
  m_RootOrder: 2
  m_LocalEulerAnglesHint: {x: 0, y: 0, z: 0}
--- !u!1001 &1873334408
PrefabInstance:
  m_ObjectHideFlags: 0
  serializedVersion: 2
  m_Modification:
    m_TransformParent: {fileID: 1472401655}
    m_Modifications:
    - target: {fileID: 100000, guid: 23e5f126029186c47a301cb4c506b280, type: 3}
      propertyPath: m_StaticEditorFlags
      value: 4294967295
      objectReference: {fileID: 0}
    - target: {fileID: 400000, guid: 23e5f126029186c47a301cb4c506b280, type: 3}
      propertyPath: m_RootOrder
      value: 16
      objectReference: {fileID: 0}
    - target: {fileID: 400000, guid: 23e5f126029186c47a301cb4c506b280, type: 3}
      propertyPath: m_LocalScale.x
      value: 4.135892
      objectReference: {fileID: 0}
    - target: {fileID: 400000, guid: 23e5f126029186c47a301cb4c506b280, type: 3}
      propertyPath: m_LocalScale.y
      value: 4.1358905
      objectReference: {fileID: 0}
    - target: {fileID: 400000, guid: 23e5f126029186c47a301cb4c506b280, type: 3}
      propertyPath: m_LocalScale.z
      value: 4.1358924
      objectReference: {fileID: 0}
    - target: {fileID: 400000, guid: 23e5f126029186c47a301cb4c506b280, type: 3}
      propertyPath: m_LocalPosition.x
      value: -12.157
      objectReference: {fileID: 0}
    - target: {fileID: 400000, guid: 23e5f126029186c47a301cb4c506b280, type: 3}
      propertyPath: m_LocalPosition.y
      value: 4.18
      objectReference: {fileID: 0}
    - target: {fileID: 400000, guid: 23e5f126029186c47a301cb4c506b280, type: 3}
      propertyPath: m_LocalPosition.z
      value: 4.36
      objectReference: {fileID: 0}
    - target: {fileID: 400000, guid: 23e5f126029186c47a301cb4c506b280, type: 3}
      propertyPath: m_LocalRotation.w
      value: 0.7071068
      objectReference: {fileID: 0}
    - target: {fileID: 400000, guid: 23e5f126029186c47a301cb4c506b280, type: 3}
      propertyPath: m_LocalRotation.x
      value: -0
      objectReference: {fileID: 0}
    - target: {fileID: 400000, guid: 23e5f126029186c47a301cb4c506b280, type: 3}
      propertyPath: m_LocalRotation.y
      value: 0.7071068
      objectReference: {fileID: 0}
    - target: {fileID: 400000, guid: 23e5f126029186c47a301cb4c506b280, type: 3}
      propertyPath: m_LocalRotation.z
      value: -0
      objectReference: {fileID: 0}
    - target: {fileID: 400000, guid: 23e5f126029186c47a301cb4c506b280, type: 3}
      propertyPath: m_LocalEulerAnglesHint.y
      value: 90
      objectReference: {fileID: 0}
    m_RemovedComponents:
    - {fileID: 9500000, guid: 23e5f126029186c47a301cb4c506b280, type: 3}
  m_SourcePrefab: {fileID: 100100000, guid: 23e5f126029186c47a301cb4c506b280, type: 3}
--- !u!4 &1873334409 stripped
Transform:
  m_CorrespondingSourceObject: {fileID: 400000, guid: 23e5f126029186c47a301cb4c506b280,
    type: 3}
  m_PrefabInstance: {fileID: 1873334408}
  m_PrefabAsset: {fileID: 0}
--- !u!1001 &1897152827
PrefabInstance:
  m_ObjectHideFlags: 0
  serializedVersion: 2
  m_Modification:
    m_TransformParent: {fileID: 1472401655}
    m_Modifications:
    - target: {fileID: 100000, guid: df1666880554cd446af9d788cc7a7a19, type: 3}
      propertyPath: m_StaticEditorFlags
      value: 4294967295
      objectReference: {fileID: 0}
    - target: {fileID: 400000, guid: df1666880554cd446af9d788cc7a7a19, type: 3}
      propertyPath: m_RootOrder
      value: 4
      objectReference: {fileID: 0}
    - target: {fileID: 400000, guid: df1666880554cd446af9d788cc7a7a19, type: 3}
      propertyPath: m_LocalScale.x
      value: 1
      objectReference: {fileID: 0}
    - target: {fileID: 400000, guid: df1666880554cd446af9d788cc7a7a19, type: 3}
      propertyPath: m_LocalScale.z
      value: 1
      objectReference: {fileID: 0}
    - target: {fileID: 400000, guid: df1666880554cd446af9d788cc7a7a19, type: 3}
      propertyPath: m_LocalPosition.x
      value: -10.39
      objectReference: {fileID: 0}
    - target: {fileID: 400000, guid: df1666880554cd446af9d788cc7a7a19, type: 3}
      propertyPath: m_LocalPosition.y
      value: -0.70375097
      objectReference: {fileID: 0}
    - target: {fileID: 400000, guid: df1666880554cd446af9d788cc7a7a19, type: 3}
      propertyPath: m_LocalPosition.z
      value: 4.04
      objectReference: {fileID: 0}
    - target: {fileID: 400000, guid: df1666880554cd446af9d788cc7a7a19, type: 3}
      propertyPath: m_LocalRotation.w
      value: 0.7071068
      objectReference: {fileID: 0}
    - target: {fileID: 400000, guid: df1666880554cd446af9d788cc7a7a19, type: 3}
      propertyPath: m_LocalRotation.x
      value: -0
      objectReference: {fileID: 0}
    - target: {fileID: 400000, guid: df1666880554cd446af9d788cc7a7a19, type: 3}
      propertyPath: m_LocalRotation.y
      value: 0.7071068
      objectReference: {fileID: 0}
    - target: {fileID: 400000, guid: df1666880554cd446af9d788cc7a7a19, type: 3}
      propertyPath: m_LocalRotation.z
      value: -0
      objectReference: {fileID: 0}
    m_RemovedComponents:
    - {fileID: 9500000, guid: df1666880554cd446af9d788cc7a7a19, type: 3}
  m_SourcePrefab: {fileID: 100100000, guid: df1666880554cd446af9d788cc7a7a19, type: 3}
--- !u!4 &1897152828 stripped
Transform:
  m_CorrespondingSourceObject: {fileID: 400000, guid: df1666880554cd446af9d788cc7a7a19,
    type: 3}
  m_PrefabInstance: {fileID: 1897152827}
  m_PrefabAsset: {fileID: 0}
--- !u!1001 &2021644562
PrefabInstance:
  m_ObjectHideFlags: 0
  serializedVersion: 2
  m_Modification:
    m_TransformParent: {fileID: 1472401655}
    m_Modifications:
    - target: {fileID: 100000, guid: c7b7ca10b0f0c8746a0a8d66fb10fa57, type: 3}
      propertyPath: m_StaticEditorFlags
      value: 4294967295
      objectReference: {fileID: 0}
    - target: {fileID: 400000, guid: c7b7ca10b0f0c8746a0a8d66fb10fa57, type: 3}
      propertyPath: m_RootOrder
      value: 8
      objectReference: {fileID: 0}
    - target: {fileID: 400000, guid: c7b7ca10b0f0c8746a0a8d66fb10fa57, type: 3}
      propertyPath: m_RootMapOrder
      value: 
      objectReference: {fileID: 0}
    - target: {fileID: 400000, guid: c7b7ca10b0f0c8746a0a8d66fb10fa57, type: 3}
      propertyPath: m_LocalPosition.x
      value: -3.33
      objectReference: {fileID: 0}
    - target: {fileID: 400000, guid: c7b7ca10b0f0c8746a0a8d66fb10fa57, type: 3}
      propertyPath: m_LocalPosition.y
      value: -0.6792487
      objectReference: {fileID: 0}
    - target: {fileID: 400000, guid: c7b7ca10b0f0c8746a0a8d66fb10fa57, type: 3}
      propertyPath: m_LocalPosition.z
      value: 13.081
      objectReference: {fileID: 0}
    - target: {fileID: 400000, guid: c7b7ca10b0f0c8746a0a8d66fb10fa57, type: 3}
      propertyPath: m_LocalRotation.w
      value: -0.00000004371139
      objectReference: {fileID: 0}
    - target: {fileID: 400000, guid: c7b7ca10b0f0c8746a0a8d66fb10fa57, type: 3}
      propertyPath: m_LocalRotation.x
      value: -0
      objectReference: {fileID: 0}
    - target: {fileID: 400000, guid: c7b7ca10b0f0c8746a0a8d66fb10fa57, type: 3}
      propertyPath: m_LocalRotation.y
      value: 1
      objectReference: {fileID: 0}
    - target: {fileID: 400000, guid: c7b7ca10b0f0c8746a0a8d66fb10fa57, type: 3}
      propertyPath: m_LocalRotation.z
      value: -0
      objectReference: {fileID: 0}
    - target: {fileID: 2300000, guid: c7b7ca10b0f0c8746a0a8d66fb10fa57, type: 3}
      propertyPath: m_LightmapIndex
      value: 255
      objectReference: {fileID: 0}
    - target: {fileID: 2300000, guid: c7b7ca10b0f0c8746a0a8d66fb10fa57, type: 3}
      propertyPath: m_LightmapTilingOffset.x
      value: 1
      objectReference: {fileID: 0}
    - target: {fileID: 2300000, guid: c7b7ca10b0f0c8746a0a8d66fb10fa57, type: 3}
      propertyPath: m_LightmapTilingOffset.y
      value: 1
      objectReference: {fileID: 0}
    m_RemovedComponents:
    - {fileID: 9500000, guid: c7b7ca10b0f0c8746a0a8d66fb10fa57, type: 3}
  m_SourcePrefab: {fileID: 100100000, guid: c7b7ca10b0f0c8746a0a8d66fb10fa57, type: 3}
--- !u!4 &2021644563 stripped
Transform:
  m_CorrespondingSourceObject: {fileID: 400000, guid: c7b7ca10b0f0c8746a0a8d66fb10fa57,
    type: 3}
  m_PrefabInstance: {fileID: 2021644562}
  m_PrefabAsset: {fileID: 0}
--- !u!1 &2126951222
GameObject:
  m_ObjectHideFlags: 0
  m_CorrespondingSourceObject: {fileID: 0}
  m_PrefabInstance: {fileID: 0}
  m_PrefabAsset: {fileID: 0}
  serializedVersion: 6
  m_Component:
  - component: {fileID: 2126951224}
  - component: {fileID: 2126951223}
  m_Layer: 0
  m_Name: Reflection
  m_TagString: Untagged
  m_Icon: {fileID: 0}
  m_NavMeshLayer: 0
  m_StaticEditorFlags: 0
  m_IsActive: 1
--- !u!215 &2126951223
ReflectionProbe:
  m_ObjectHideFlags: 0
  m_CorrespondingSourceObject: {fileID: 0}
  m_PrefabInstance: {fileID: 0}
  m_PrefabAsset: {fileID: 0}
  m_GameObject: {fileID: 2126951222}
  m_Enabled: 1
  serializedVersion: 2
  m_Type: 0
  m_Mode: 1
  m_RefreshMode: 0
  m_TimeSlicingMode: 0
  m_Resolution: 256
  m_UpdateFrequency: 0
  m_BoxSize: {x: 50, y: 50, z: 50}
  m_BoxOffset: {x: 0, y: 0, z: 0}
  m_NearClip: 0.3
  m_FarClip: 1000
  m_ShadowDistance: 100
  m_ClearFlags: 1
  m_BackGroundColor: {r: 0.19215687, g: 0.3019608, b: 0.4745098, a: 0}
  m_CullingMask:
    serializedVersion: 2
    m_Bits: 4294967295
  m_IntensityMultiplier: 0.6
  m_BlendDistance: 1
  m_HDR: 1
  m_BoxProjection: 0
  m_RenderDynamicObjects: 0
  m_UseOcclusionCulling: 1
  m_Importance: 1
  m_CustomBakedTexture: {fileID: 0}
--- !u!4 &2126951224
Transform:
  m_ObjectHideFlags: 0
  m_CorrespondingSourceObject: {fileID: 0}
  m_PrefabInstance: {fileID: 0}
  m_PrefabAsset: {fileID: 0}
  m_GameObject: {fileID: 2126951222}
  m_LocalRotation: {x: 0, y: 0, z: 0, w: 1}
  m_LocalPosition: {x: -3.05, y: 3.44, z: 8.16}
  m_LocalScale: {x: 1, y: 1, z: 1}
  m_Children: []
  m_Father: {fileID: 0}
  m_RootOrder: 3
  m_LocalEulerAnglesHint: {x: 0, y: 0, z: 0}
